<svg xmlns="http://www.w3.org/2000/svg" width="60" height="60" viewBox="0 0 60 60">
  <g id="Group_46" data-name="Group 46" transform="translate(-277 -180)">
    <circle id="Ellipse_4" data-name="Ellipse 4" cx="30" cy="30" r="30" transform="translate(277 180)" fill="#c5676d"/>
    <path id="icon" d="M27.121,3.448V8.865H0V3.448H8.4V0H18.617V3.448ZM2.594,11.175H24.515v3.537c0,4.468-.011,8.934,0,13.4,0,2.337-2.561,2.7-2.907,2.7-5.362-.038-10.725.009-16.087,0-1.461,0-2.924-1.791-2.913-3.35C2.64,22.1,2.594,16.735,2.594,11.175Zm16.133,15.39h2.164V15.128H18.727Zm-6.249.049h2.164V15.179H12.478Zm-6.3-.049H8.34V15.128H6.176Z" transform="translate(293.27 195.035)" fill="#fff"/>
  </g>
</svg>
